Classifying
…
How we can expand a list column to see what is in it?

--

`tidyr::unnest()`

.footnote[https://tidyr.tidyverse.org/reference/unnest.html]

---

```r
tree_fit %>% 
  unnest(.predictions)
# A tibble: 286 x 10
   splits id    .metrics .notes .pred_Remote `.pred_Not remo…  .row .pred_class
   <list> <chr> <list>   <list>        <dbl>            <dbl> <int> <fct>      
 1 <spli… trai… <tibble… <tibb…        0.687            0.313     2 Remote     
 2 <spli… trai… <tibble… <tibb…        0.687            0.313    12 Remote     
 3 <spli… trai… <tibble… <tibb…        0.368            0.632    15 Not remote 
 4 <spli… trai… <tibble… <tibb…        0.368            0.632    19 Not remote 
 5 <spli… trai… <tibble… <tibb…        0.687            0.313    23 Remote     
 6 <spli… trai… <tibble… <tibb…        0.368            0.632    28 Not remote 
 7 <spli… trai… <tibble… <tibb…        0.687            0.313    38 Remote     
 8 <spli… trai… <tibble… <tibb…        0.368            0.632    46 Not remote 
 9 <spli… trai… <tibble… <tibb…        0.687            0.313    53 Remote     
10 <spli… trai… <tibble… <tibb…        0.368            0.632    56 Not remote 
# … with 276 more rows, and 2 more variables: remote <fct>, .workflow <list>
```
…
# `collect_predictions()`

Unnest the predictions column from a tidymodels `fit_split()`

```r
tree_fit %>% collect_predictions()
```

---

```r
tree_fit %>% 
  collect_predictions()
# A tibble: 286 x 6
   id               .pred_Remote `.pred_Not remote`  .row .pred_class remote
   <chr>                   <dbl>              <dbl> <int> <fct>       <fct> 
 1 train/test split        0.687              0.313     2 Remote      Remote
 2 train/test split        0.687              0.313    12 Remote      Remote
 3 train/test split        0.368              0.632    15 Not remote  Remote
 4 train/test split        0.368              0.632    19 Not remote  Remote
 5 train/test split        0.687              0.313    23 Remote      Remote
 6 train/test split        0.368              0.632    28 Not remote  Remote
 7 train/test split        0.687              0.313    38 Remote      Remote
 8 train/test split        0.368              0.632    46 Not remote  Remote
 9 train/test split        0.687              0.313    53 Remote      Remote
10 train/test split        0.368              0.632    56 Not remote  Remote
# … with 276 more rows
```
…
