Workflows
…
---

### What will this code do?

```r
ames_zsplit <- ames %>% 
  mutate(z_price = (Sale_Price - mean(Sale_Price)) / sd(Sale_Price)) %>% 
  initial_split()
```

--

```
## # A tibble: 2,198 x 2
##    Sale_Price  z_price
##         <int>    <dbl>
##  1     105000 -0.949  
##  2     172000 -0.110  
##  3     244000  0.791  
##  4     213500  0.409  
##  5     191500  0.134  
##  6     236500  0.697  
##  7     189000  0.103  
##  8     175900 -0.0613 
##  9     185000  0.0526 
## 10     180400 -0.00496
## # … with 2,188 more rows
```
…
# Your Turn 4

But what about the predictions of our model? 

Save the fitted object from your regression tree, and use `collect_predictions()` to see the predictions generated from the test data.

03:00

---

```r
all_fitwf <- fit_split(rt_wf, split = ames_split)
all_fitwf %>% 
  collect_predictions()
## # A tibble: 732 x 4
##    id                 .pred  .row Sale_Price
##    <chr>              <dbl> <int>      <int>
##  1 train/test split 190775.     1     215000
##  2 train/test split 108409.     2     105000
##  3 train/test split 252556.     4     244000
##  4 train/test split 155275.    11     175900
##  5 train/test split 339239.    16     538000
##  6 train/test split 351391.    18     394432
##  7 train/test split 138151.    26     142000
##  8 train/test split 108409.    30      96000
##  9 train/test split 192131.    56     216500
## 10 train/test split 252556.    65     221000
## # … with 722 more rows
```
…
