Tuning
…
---

```
# A tibble: 110 x 5
   id     neighbors .metric .estimator .estimate
   <chr>      <int> <chr>   <chr>          <dbl>
 1 Fold01        10 rmse    standard      39579.
 2 Fold01        11 rmse    standard      39582.
 3 Fold01        12 rmse    standard      39628.
 4 Fold01        13 rmse    standard      39693.
 5 Fold01        14 rmse    standard      39743.
 6 Fold01        15 rmse    standard      39787.
 7 Fold01        16 rmse    standard      39850.
 8 Fold01        17 rmse    standard      39928.
 9 Fold01        18 rmse    standard      40004.
10 Fold01        19 rmse    standard      40081.
# … with 100 more rows
```
…
---
class: middle

.center[
# Predict the test set
]

```r
so_test_results %>% 
  collect_predictions()
# A tibble: 1,398 x 6
   id               .pred_Remote `.pred_Not remote`  .row .pred_class Remote    
   <chr>                   <dbl>              <dbl> <int> <fct>       <fct>     
 1 train/test split        0.479              0.521     1 Not remote  Remote    
 2 train/test split        0.450              0.550     6 Not remote  Not remote
 3 train/test split        0.409              0.591    18 Not remote  Not remote
 4 train/test split        0.582              0.418    23 Remote      Not remote
 5 train/test split        0.513              0.487    30 Remote      Not remote
 6 train/test split        0.521              0.479    50 Remote      Not remote
 7 train/test split        0.609              0.391    53 Remote      Not remote
 8 train/test split        0.504              0.496    56 Remote      Not remote
 9 train/test split        0.552              0.448    63 Remote      Not remote
10 train/test split        0.418              0.582    68 Not remote  Not remote
# … with 1,388 more rows
```
…
